<?xml version="1.0" encoding="UTF-8" standalone="no"?>
<!-- Created with Inkscape (http://www.inkscape.org/) -->
<svg
   xmlns:dc="http://purl.org/dc/elements/1.1/"
   xmlns:cc="http://creativecommons.org/ns#"
   xmlns:rdf="http://www.w3.org/1999/02/22-rdf-syntax-ns#"
   xmlns:svg="http://www.w3.org/2000/svg"
   xmlns="http://www.w3.org/2000/svg"
   xmlns:sodipodi="http://sodipodi.sourceforge.net/DTD/sodipodi-0.dtd"
   xmlns:inkscape="http://www.inkscape.org/namespaces/inkscape"
   width="179.67999"
   height="22.596251"
   id="svg2590"
   sodipodi:version="0.32"
   inkscape:version="0.46"
   version="1.0"
   sodipodi:docname="Logo Bertelsmann Stiftung.svg"
   inkscape:output_extension="org.inkscape.output.svg.inkscape">
  <defs
     id="defs2592">
    <clipPath
       clipPathUnits="userSpaceOnUse"
       id="clipPath119">
      <path
         d="M 0.029999,841.98 L 595.05,841.98 L 595.05,0 L 0.029999,0 L 0.029999,841.98 z"
         id="path121" />
    </clipPath>
    <clipPath
       clipPathUnits="userSpaceOnUse"
       id="clipPath113">
      <path
         d="M 0,842 L 595.276,842 L 595.276,0.11 L 0,0.11 L 0,842 z"
         id="path115" />
    </clipPath>
    <clipPath
       clipPathUnits="userSpaceOnUse"
       id="clipPath107">
      <path
         d="M 419.528,48.299 L 568.347,48.299 L 568.347,19.953 L 419.528,19.953 L 419.528,48.299 z"
         clip-rule="evenodd"
         id="path109" />
    </clipPath>
    <inkscape:perspective
       sodipodi:type="inkscape:persp3d"
       inkscape:vp_x="0 : 526.18109 : 1"
       inkscape:vp_y="0 : 1000 : 0"
       inkscape:vp_z="744.09448 : 526.18109 : 1"
       inkscape:persp3d-origin="372.04724 : 350.78739 : 1"
       id="perspective2598" />
  </defs>
  <sodipodi:namedview
     id="base"
     pagecolor="#ffffff"
     bordercolor="#666666"
     borderopacity="1.0"
     inkscape:pageopacity="0.0"
     inkscape:pageshadow="2"
     inkscape:zoom="3.1500445"
     inkscape:cx="89.84"
     inkscape:cy="11.298126"
     inkscape:document-units="px"
     inkscape:current-layer="layer1"
     showgrid="false"
     inkscape:window-width="640"
     inkscape:window-height="667"
     inkscape:window-x="44"
     inkscape:window-y="58" />
  <metadata
     id="metadata2595">
    <rdf:RDF>
      <cc:Work
         rdf:about="">
        <dc:format>image/svg+xml</dc:format>
        <dc:type
           rdf:resource="http://purl.org/dc/dcmitype/StillImage" />
      </cc:Work>
    </rdf:RDF>
  </metadata>
  <g
     inkscape:label="Ebene 1"
     inkscape:groupmode="layer"
     id="layer1"
     transform="translate(-178.73143,-458.20691)">
    <g
       transform="matrix(1.25,0,0,-1.25,-349.54107,514.70066)"
       id="g103">
      <g
         id="g105"
         clip-path="url(#clipPath107)">
        <g
           id="g111"
           clip-path="url(#clipPath113)">
          <g
             id="g117"
             clip-path="url(#clipPath119)">
            <g
               id="g123"
               transform="translate(431.654,40.886)">
              <path
                 d="M 0,0 L 0,-9.913 L 2.078,-9.913 C 2.879,-9.913 3.229,-9.871 3.608,-9.759 C 4.254,-9.562 5.448,-8.93 5.448,-7.147 C 5.448,-6.263 5.153,-5.785 4.886,-5.476 C 4.535,-5.069 4.114,-4.9 3.637,-4.718 C 3.932,-4.62 4.746,-4.311 5.083,-3.398 C 5.223,-3.019 5.237,-2.626 5.237,-2.485 C 5.237,-1.25 4.591,-0.351 3.37,-0.084 C 2.977,0.014 2.626,0.014 2.233,0 L 0,0 z M 1.236,-1.025 L 2.092,-1.025 C 2.246,-1.025 2.991,-0.969 3.496,-1.404 C 3.945,-1.797 3.974,-2.443 3.974,-2.612 C 3.974,-3.342 3.608,-3.988 2.864,-4.184 C 2.64,-4.255 2.471,-4.269 2.022,-4.269 L 1.236,-4.269 L 1.236,-1.025 z M 1.236,-5.308 L 2.289,-5.308 C 2.598,-5.322 2.85,-5.322 3.145,-5.42 C 4.114,-5.771 4.17,-6.824 4.17,-7.091 C 4.17,-7.203 4.156,-7.498 4.058,-7.793 C 3.945,-8.088 3.777,-8.284 3.693,-8.369 C 3.243,-8.818 2.682,-8.846 2.092,-8.874 L 1.236,-8.874 L 1.236,-5.308"
                 style="fill:#004684;fill-opacity:1;fill-rule:evenodd;stroke:none"
                 id="path125" />
            </g>
            <g
               id="g127"
               transform="translate(444.365,32.405)">
              <path
                 d="M 0,0 C -0.828,-0.477 -1.334,-0.576 -1.797,-0.576 C -2.387,-0.576 -2.724,-0.365 -2.92,-0.211 C -3.721,0.421 -3.721,1.657 -3.721,1.853 L 0.421,1.867 L 0.421,2.162 C 0.421,3.103 0.365,3.988 -0.14,4.802 C -0.59,5.532 -1.292,5.939 -2.148,5.939 C -3.51,5.939 -4.971,4.929 -4.971,2.134 C -4.971,0.505 -4.409,-0.365 -3.875,-0.842 C -3.328,-1.348 -2.71,-1.559 -1.98,-1.559 C -1.207,-1.559 -0.505,-1.334 -0.267,-1.236 C -0.182,-1.194 -0.098,-1.151 -0.014,-1.095 L 0,0 z M -3.721,2.752 C -3.637,3.833 -3.398,4.409 -2.977,4.746 C -2.752,4.914 -2.471,5.013 -2.176,5.013 C -1.755,5.013 -1.376,4.816 -1.151,4.451 C -0.912,4.1 -0.828,3.623 -0.786,2.752 L -3.721,2.752"
                 style="fill:#004684;fill-opacity:1;fill-rule:evenodd;stroke:none"
                 id="path129" />
            </g>
            <g
               id="g131"
               transform="translate(447.125,38.232)">
              <path
                 d="M 0,0 C 0.028,-0.379 0.056,-0.758 0.07,-1.137 C 0.098,-1.629 0.098,-2.12 0.098,-2.612 L 0.098,-7.259 L 1.292,-7.259 L 1.292,-2.977 C 1.306,-2.71 1.306,-2.443 1.39,-2.191 C 1.516,-1.839 1.867,-1.376 2.218,-1.207 C 2.387,-1.123 2.836,-1.025 3.047,-1.025 C 3.173,-1.025 3.201,-1.039 3.271,-1.067 L 3.271,0.112 C 2.864,0.126 2.12,0.112 1.53,-0.744 C 1.404,-0.913 1.292,-1.109 1.193,-1.306 C 1.179,-0.871 1.179,-0.435 1.123,-0.014 L 0,0"
                 style="fill:#004684;fill-opacity:1;fill-rule:nonzero;stroke:none"
                 id="path133" />
            </g>
            <g
               id="g135"
               transform="translate(456.037,38.232)">
              <path
                 d="M 0,0 L -1.516,0 L -1.516,1.839 L -2.738,1.489 L -2.738,0 L -3.889,0 L -3.889,-0.983 L -2.738,-0.983 L -2.738,-5.237 C -2.724,-5.799 -2.752,-6.262 -2.401,-6.754 C -2.134,-7.105 -1.713,-7.344 -0.814,-7.344 C -0.421,-7.344 -0.182,-7.259 -0.014,-7.203 L 0,-6.22 C -0.309,-6.347 -0.491,-6.361 -0.646,-6.361 C -1.053,-6.361 -1.264,-6.206 -1.362,-6.066 C -1.516,-5.841 -1.516,-5.392 -1.516,-5.125 L -1.516,-0.983 L 0,-0.983 L 0,0"
                 style="fill:#004684;fill-opacity:1;fill-rule:nonzero;stroke:none"
                 id="path137" />
            </g>
            <g
               id="g139"
               transform="translate(463.054,32.405)">
              <path
                 d="M 0,0 C -0.828,-0.477 -1.334,-0.576 -1.797,-0.576 C -2.387,-0.576 -2.724,-0.365 -2.92,-0.211 C -3.721,0.421 -3.721,1.657 -3.721,1.853 L 0.421,1.867 L 0.421,2.162 C 0.421,3.103 0.365,3.988 -0.14,4.802 C -0.59,5.532 -1.292,5.939 -2.148,5.939 C -3.51,5.939 -4.971,4.929 -4.971,2.134 C -4.971,0.505 -4.409,-0.365 -3.875,-0.842 C -3.328,-1.348 -2.71,-1.559 -1.98,-1.559 C -1.208,-1.559 -0.505,-1.334 -0.267,-1.236 C -0.183,-1.194 -0.098,-1.151 -0.014,-1.095 L 0,0 z M -3.721,2.752 C -3.637,3.833 -3.398,4.409 -2.977,4.746 C -2.752,4.914 -2.471,5.013 -2.176,5.013 C -1.755,5.013 -1.376,4.816 -1.151,4.451 C -0.912,4.1 -0.828,3.623 -0.786,2.752 L -3.721,2.752"
                 style="fill:#004684;fill-opacity:1;fill-rule:evenodd;stroke:none"
                 id="path141" />
            </g>
            <path
               d="M 465.912,30.973 L 467.1195,30.973 L 467.1195,41.701 L 465.912,41.701 L 465.912,30.973 z"
               style="fill:#004684;fill-opacity:1;fill-rule:nonzero;stroke:none"
               id="path143" />
            <g
               id="g145"
               transform="translate(473.431,38.12)">
              <path
                 d="M 0,0 C -0.168,0.042 -0.828,0.225 -1.46,0.225 C -2.85,0.225 -3.426,-0.59 -3.595,-1.123 C -3.693,-1.432 -3.693,-1.713 -3.693,-1.825 C -3.693,-2.303 -3.651,-2.949 -2.752,-3.524 C -2.485,-3.693 -2.261,-3.805 -2.162,-3.847 C -1.587,-4.114 -0.786,-4.381 -0.786,-5.167 C -0.786,-5.56 -1.053,-6.277 -2.05,-6.277 C -2.654,-6.277 -3.286,-5.982 -3.426,-5.912 C -3.51,-5.869 -3.595,-5.813 -3.679,-5.771 L -3.791,-6.908 C -3.019,-7.175 -2.724,-7.274 -1.91,-7.274 C -1.797,-7.274 -1.376,-7.274 -1.011,-7.161 C -0.112,-6.866 0.379,-5.996 0.379,-5.083 C 0.379,-4.241 0.028,-3.749 -0.66,-3.3 C -0.871,-3.173 -1.095,-3.061 -1.306,-2.949 C -1.797,-2.71 -2.513,-2.443 -2.513,-1.755 C -2.513,-1.418 -2.303,-0.758 -1.418,-0.758 C -0.913,-0.758 -0.155,-1.053 -0.112,-1.081 L 0,0"
                 style="fill:#004684;fill-opacity:1;fill-rule:nonzero;stroke:none"
                 id="path147" />
            </g>
            <g
               id="g149"
               transform="translate(484.85,35.93)">
              <path
                 d="M 0,0 C 0,0.548 -0.042,0.73 -0.113,1.011 C -0.365,1.882 -1.081,2.415 -1.994,2.415 C -2.471,2.415 -3.033,2.303 -3.637,1.503 C -3.707,1.418 -3.777,1.32 -3.833,1.236 C -3.988,1.516 -4.03,1.587 -4.156,1.741 C -4.493,2.191 -4.929,2.429 -5.504,2.429 C -6.445,2.429 -6.937,1.924 -7.442,1.236 C -7.442,1.587 -7.442,1.952 -7.456,2.289 L -8.537,2.303 C -8.523,1.994 -8.523,1.685 -8.509,1.376 L -8.509,-4.957 L -7.302,-4.957 L -7.302,-0.267 C -7.288,0 -7.274,0.197 -7.175,0.435 C -7.049,0.801 -6.698,1.138 -6.347,1.278 C -6.15,1.362 -5.996,1.362 -5.912,1.362 C -5.532,1.362 -5.322,1.208 -5.196,1.095 C -4.844,0.758 -4.83,0.267 -4.816,-0.197 L -4.816,-4.957 L -3.623,-4.957 L -3.623,-0.379 C -3.623,-0.14 -3.609,0.141 -3.553,0.379 C -3.454,0.716 -3.173,1.095 -2.822,1.264 C -2.738,1.306 -2.556,1.376 -2.289,1.39 C -1.236,1.39 -1.208,0.323 -1.194,0.084 L -1.194,-4.957 L 0,-4.957 L 0,0"
                 style="fill:#004684;fill-opacity:1;fill-rule:nonzero;stroke:none"
                 id="path151" />
            </g>
            <g
               id="g153"
               transform="translate(492.689,35.649)">
              <path
                 d="M 0,0 C -0.014,0.421 -0.014,0.843 -0.14,1.264 C -0.463,2.289 -1.418,2.71 -2.415,2.71 C -3.468,2.71 -4.156,2.331 -4.521,2.134 L -4.409,1.039 C -3.623,1.629 -3.005,1.741 -2.57,1.741 C -1.629,1.741 -1.32,1.18 -1.208,0.8 C -1.095,0.407 -1.123,-0.169 -1.123,-0.253 C -1.306,-0.253 -1.474,-0.239 -1.657,-0.239 C -3.412,-0.239 -4.283,-0.66 -4.774,-1.376 C -5.125,-1.868 -5.153,-2.373 -5.153,-2.598 C -5.153,-3.398 -4.788,-3.946 -4.592,-4.156 C -4.353,-4.409 -3.861,-4.802 -3.005,-4.802 C -2.134,-4.802 -1.53,-4.367 -1.067,-3.665 C -1.067,-3.749 -1.081,-3.833 -1.081,-3.932 C -1.081,-4.184 -1.039,-4.437 -1.039,-4.676 L 0.084,-4.676 C 0.056,-4.409 0.042,-4.142 0.028,-3.875 C 0.014,-3.567 0,-3.272 0,-2.963 L 0,0 z M -1.123,-1.797 C -1.123,-1.924 -1.123,-2.303 -1.25,-2.696 C -1.376,-3.089 -1.587,-3.328 -1.699,-3.44 C -2.008,-3.735 -2.345,-3.861 -2.78,-3.861 C -3.131,-3.861 -3.398,-3.763 -3.637,-3.51 C -3.763,-3.37 -3.988,-3.075 -3.988,-2.612 C -3.988,-2.275 -3.847,-1.868 -3.623,-1.615 C -3.216,-1.151 -2.415,-0.983 -1.123,-1.053 L -1.123,-1.797"
                 style="fill:#004684;fill-opacity:1;fill-rule:evenodd;stroke:none"
                 id="path155" />
            </g>
            <g
               id="g157"
               transform="translate(495.772,38.232)">
              <path
                 d="M 0,0 C 0.028,-0.702 0.014,-1.39 0.014,-2.078 L 0.014,-7.259 L 1.221,-7.259 L 1.221,-3.005 C 1.25,-2.471 1.264,-1.952 1.587,-1.488 C 1.853,-1.151 2.261,-0.941 2.696,-0.941 C 3.496,-0.941 3.721,-1.601 3.763,-1.839 C 3.819,-2.05 3.819,-2.289 3.833,-2.499 L 3.833,-7.259 L 5.027,-7.259 L 5.027,-2.261 C 5.027,-1.98 5.055,-0.829 4.142,-0.211 C 3.974,-0.098 3.58,0.112 3.033,0.112 C 1.994,0.112 1.46,-0.59 1.264,-0.885 C 1.207,-0.955 1.151,-1.039 1.095,-1.137 C 1.095,-0.758 1.109,-0.379 1.095,-0.014 L 0,0"
                 style="fill:#004684;fill-opacity:1;fill-rule:nonzero;stroke:none"
                 id="path159" />
            </g>
            <g
               id="g161"
               transform="translate(503.891,38.232)">
              <path
                 d="M 0,0 C 0.028,-0.702 0.014,-1.39 0.014,-2.078 L 0.014,-7.259 L 1.221,-7.259 L 1.221,-3.005 C 1.25,-2.471 1.264,-1.952 1.587,-1.488 C 1.854,-1.151 2.261,-0.941 2.696,-0.941 C 3.496,-0.941 3.721,-1.601 3.763,-1.839 C 3.819,-2.05 3.819,-2.289 3.833,-2.499 L 3.833,-7.259 L 5.027,-7.259 L 5.027,-2.261 C 5.027,-1.98 5.055,-0.829 4.142,-0.211 C 3.974,-0.098 3.58,0.112 3.033,0.112 C 1.994,0.112 1.46,-0.59 1.264,-0.885 C 1.208,-0.955 1.151,-1.039 1.095,-1.137 C 1.095,-0.758 1.109,-0.379 1.095,-0.014 L 0,0"
                 style="fill:#004684;fill-opacity:1;fill-rule:nonzero;stroke:none"
                 id="path163" />
            </g>
            <g
               id="g165"
               transform="translate(517.57,40.676)">
              <path
                 d="M 0,0 C -0.927,0.281 -1.769,0.365 -2.12,0.365 C -3.272,0.365 -4.493,-0.14 -4.985,-1.264 C -5.181,-1.727 -5.195,-2.176 -5.195,-2.359 C -5.195,-3.398 -4.732,-4.016 -4.451,-4.311 C -4.058,-4.718 -3.623,-4.9 -2.654,-5.434 C -2.218,-5.673 -1.811,-5.883 -1.558,-6.333 C -1.404,-6.599 -1.39,-6.894 -1.39,-7.007 C -1.39,-7.596 -1.755,-8.13 -2.331,-8.312 C -2.443,-8.341 -2.612,-8.383 -2.892,-8.383 C -3.763,-8.383 -4.479,-8.046 -4.732,-7.905 C -4.802,-7.863 -4.886,-7.821 -4.957,-7.779 L -5.069,-9.408 C -3.988,-9.801 -3.201,-9.843 -2.724,-9.843 C -0.885,-9.843 -0.126,-8.93 0.211,-8.2 C 0.477,-7.625 0.506,-7.133 0.506,-6.894 C 0.506,-5.827 -0.028,-5.139 -0.309,-4.844 C -0.492,-4.662 -0.744,-4.465 -1.236,-4.17 C -1.474,-4.044 -1.699,-3.917 -1.938,-3.791 C -2.387,-3.524 -2.612,-3.426 -2.822,-3.272 C -3.131,-3.019 -3.314,-2.682 -3.314,-2.289 C -3.314,-2.162 -3.3,-1.91 -3.131,-1.643 C -2.766,-1.053 -2.036,-1.067 -1.867,-1.067 C -1.208,-1.067 -0.59,-1.292 -0.393,-1.376 C -0.295,-1.418 -0.196,-1.474 -0.084,-1.516 L 0,0"
                 style="fill:#004684;fill-opacity:1;fill-rule:nonzero;stroke:none"
                 id="path167" />
            </g>
            <g
               id="g169"
               transform="translate(524.102,38.289)">
              <path
                 d="M 0,0 L -1.46,0 L -1.46,2.05 L -3.173,1.517 L -3.173,0 L -4.395,0 L -4.395,-1.278 L -3.201,-1.278 L -3.216,-5.139 C -3.23,-5.855 -3.145,-6.571 -2.513,-7.035 C -1.966,-7.428 -1.362,-7.414 -1.151,-7.414 C -0.59,-7.414 -0.182,-7.316 0.042,-7.259 L 0,-5.968 C -0.197,-6.066 -0.323,-6.094 -0.562,-6.094 C -0.73,-6.094 -1.236,-6.094 -1.404,-5.56 C -1.46,-5.364 -1.46,-5.209 -1.46,-5.027 L -1.46,-1.278 L 0,-1.278 L 0,0"
                 style="fill:#004684;fill-opacity:1;fill-rule:nonzero;stroke:none"
                 id="path171" />
            </g>
            <g
               id="g173"
               transform="translate(526.521,38.289)">
              <path
                 d="M 1.755,0 L -0.0002,0 L -0.0002,-7.3156 L 1.755,-7.3156 L 1.755,0 z M 1.811,3.103 L -0.0425,3.103 L -0.0425,1.3759 L 1.811,1.3759 L 1.811,3.103 z"
                 style="fill:#004684;fill-opacity:1;fill-rule:evenodd;stroke:none"
                 id="path175" />
            </g>
            <g
               id="g177"
               transform="translate(530.413,38.289)">
              <path
                 d="M 0,0 L 0,-1.278 L 1.222,-1.278 L 1.222,-7.316 L 2.963,-7.316 L 2.963,-1.278 L 4.283,-1.278 L 4.283,0 L 2.963,0 L 2.963,0.997 C 2.977,1.376 2.991,1.755 3.356,1.994 C 3.51,2.092 3.693,2.134 3.875,2.134 C 4.156,2.134 4.381,2.036 4.479,2.008 L 4.507,3.314 C 4.339,3.342 3.875,3.44 3.356,3.44 C 2.584,3.44 2.106,3.201 1.854,2.977 C 1.797,2.935 1.671,2.794 1.559,2.598 C 1.222,2.036 1.236,1.418 1.222,1.208 L 1.222,0 L 0,0"
                 style="fill:#004684;fill-opacity:1;fill-rule:nonzero;stroke:none"
                 id="path179" />
            </g>
            <g
               id="g181"
               transform="translate(540.6,38.289)">
              <path
                 d="M 0,0 L -1.46,0 L -1.46,2.05 L -3.173,1.517 L -3.173,0 L -4.395,0 L -4.395,-1.278 L -3.201,-1.278 L -3.216,-5.139 C -3.23,-5.855 -3.145,-6.571 -2.513,-7.035 C -1.966,-7.428 -1.362,-7.414 -1.151,-7.414 C -0.59,-7.414 -0.183,-7.316 0.042,-7.259 L 0,-5.968 C -0.197,-6.066 -0.323,-6.094 -0.562,-6.094 C -0.73,-6.094 -1.236,-6.094 -1.404,-5.56 C -1.46,-5.364 -1.46,-5.209 -1.46,-5.027 L -1.46,-1.278 L 0,-1.278 L 0,0"
                 style="fill:#004684;fill-opacity:1;fill-rule:nonzero;stroke:none"
                 id="path183" />
            </g>
            <g
               id="g185"
               transform="translate(548.874,38.289)">
              <path
                 d="M 0,0 L -1.755,0 L -1.755,-4.283 C -1.769,-4.662 -1.797,-4.83 -1.839,-4.999 C -1.91,-5.237 -2.233,-6.01 -3.075,-6.01 C -3.342,-6.01 -3.524,-5.925 -3.609,-5.869 C -4.058,-5.617 -4.086,-5.097 -4.1,-4.648 L -4.1,0 L -5.855,0 L -5.855,-4.718 C -5.841,-5.406 -5.827,-6.108 -5.378,-6.684 C -4.844,-7.386 -3.96,-7.442 -3.707,-7.442 C -2.668,-7.442 -2.064,-6.824 -1.839,-6.515 C -1.755,-6.417 -1.685,-6.291 -1.629,-6.178 C -1.615,-6.571 -1.601,-6.937 -1.587,-7.316 L 0.084,-7.316 C 0.028,-6.67 0.028,-6.01 0,-5.35 L 0,0"
                 style="fill:#004684;fill-opacity:1;fill-rule:nonzero;stroke:none"
                 id="path187" />
            </g>
            <g
               id="g189"
               transform="translate(551.664,38.289)">
              <path
                 d="M 0,0 C 0.056,-0.618 0.07,-1.221 0.084,-1.839 L 0.084,-7.316 L 1.839,-7.316 L 1.839,-3.033 C 1.853,-2.626 1.853,-2.233 2.106,-1.867 C 2.443,-1.39 2.921,-1.334 3.131,-1.334 C 3.244,-1.334 3.44,-1.334 3.679,-1.474 C 4.1,-1.713 4.17,-2.233 4.17,-2.668 L 4.17,-7.316 L 5.925,-7.316 L 5.925,-2.345 C 5.925,-2.218 5.925,-1.685 5.771,-1.236 C 5.462,-0.365 4.662,0.126 3.749,0.126 C 2.696,0.126 2.092,-0.52 1.882,-0.828 C 1.811,-0.927 1.741,-1.053 1.685,-1.179 C 1.685,-0.786 1.657,-0.407 1.643,0 L 0,0"
                 style="fill:#004684;fill-opacity:1;fill-rule:nonzero;stroke:none"
                 id="path191" />
            </g>
            <g
               id="g193"
               transform="translate(566.306,37.32)">
              <path
                 d="M 0,0 C 0.014,0.323 0.042,0.646 0.056,0.969 L -1.601,0.969 C -1.643,0.59 -1.643,0.225 -1.643,-0.155 C -1.685,-0.098 -1.769,0.07 -1.896,0.225 C -2.008,0.365 -2.134,0.491 -2.26,0.604 C -2.471,0.772 -2.878,1.095 -3.552,1.095 C -3.875,1.095 -4.451,1.039 -5.027,0.506 C -5.616,-0.028 -6.122,-0.927 -6.122,-2.64 C -6.122,-3.637 -5.953,-4.774 -5.266,-5.575 C -4.816,-6.094 -4.269,-6.347 -3.566,-6.347 C -3.187,-6.347 -2.921,-6.263 -2.794,-6.206 C -2.148,-5.926 -1.755,-5.251 -1.657,-5.097 C -1.713,-6.206 -1.685,-6.751 -1.952,-7.252 C -2.05,-7.433 -2.176,-7.6 -2.345,-7.726 C -2.794,-8.06 -3.44,-8.088 -3.58,-8.088 C -4.367,-8.088 -5.167,-7.74 -5.35,-7.656 C -5.462,-7.6 -5.589,-7.531 -5.701,-7.475 L -5.785,-9.029 C -5.322,-9.183 -4.549,-9.45 -3.384,-9.45 C -2.864,-9.45 -2.542,-9.394 -2.331,-9.352 C -1.699,-9.211 -1.25,-8.888 -1.067,-8.734 C -0.154,-7.949 -0.07,-6.792 -0.028,-6.43 C -0.014,-6.192 0,-5.939 0,-5.687 L 0,0 z M -3.061,-0.253 C -2.415,-0.281 -2.106,-0.772 -2.008,-0.941 C -1.685,-1.573 -1.713,-2.598 -1.713,-2.696 C -1.713,-3.819 -1.881,-4.339 -2.289,-4.746 C -2.387,-4.844 -2.612,-5.069 -3.019,-5.069 C -3.482,-5.069 -3.735,-4.83 -3.847,-4.69 C -3.96,-4.549 -4.016,-4.409 -4.044,-4.339 C -4.311,-3.693 -4.297,-2.921 -4.297,-2.738 C -4.297,-1.545 -4.128,-0.786 -3.665,-0.435 C -3.426,-0.253 -3.173,-0.253 -3.061,-0.253"
                 style="fill:#004684;fill-opacity:1;fill-rule:evenodd;stroke:none"
                 id="path195" />
            </g>
            <path
               d="M 422.618,27.118 L 423.8256,27.118 L 423.8256,45.195 L 422.618,45.195 L 422.618,27.118 z"
               style="fill:#004684;fill-opacity:1;fill-rule:nonzero;stroke:none"
               id="path197" />
          </g>
        </g>
      </g>
    </g>
  </g>
</svg>
