<?xml version="1.0" encoding="utf-8"?>
<!-- Generator: Adobe Illustrator 19.0.0, SVG Export Plug-In . SVG Version: 6.00 Build 0)  -->
<svg version="1.1" id="Calque_1" xmlns="http://www.w3.org/2000/svg" xmlns:xlink="http://www.w3.org/1999/xlink" x="0px" y="0px"
	 viewBox="0 0 250 50" style="enable-background:new 0 0 250 50;" xml:space="preserve">
<style type="text/css">
	.st0{clip-path:url(#XMLID_40_);fill:#878484;}
	.st1{clip-path:url(#XMLID_40_);fill:#FFFFFF;}
</style>
<g id="XMLID_39_">
	<defs>
		<rect id="XMLID_1_" x="0" y="0" width="244.7" height="54.4"/>
	</defs>
	<clipPath id="XMLID_40_">
		<use xlink:href="#XMLID_1_"  style="overflow:visible;"/>
	</clipPath>
	<path id="XMLID_37_" class="st0" d="M0,48.7V16.2C0,7.3,7.3,0,16.2,0h32.5v32.5c0,8.9-7.3,16.2-16.2,16.2H0"/>
	<path id="XMLID_36_" class="st0" d="M61.2,26h-1.4v-1.4h3v4c-0.1,0-0.3,0.1-0.5,0.1c-0.2,0-0.4,0.1-0.7,0.1c-0.2,0-0.5,0.1-0.7,0.1
		c-0.2,0-0.5,0-0.7,0c-0.6,0-1-0.1-1.5-0.2c-0.4-0.1-0.8-0.3-1-0.6c-0.3-0.3-0.5-0.7-0.6-1.1c-0.1-0.5-0.2-1.1-0.2-1.8
		c0-0.7,0.1-1.3,0.2-1.8c0.2-0.5,0.4-0.8,0.7-1.1c0.3-0.3,0.7-0.5,1.1-0.6c0.4-0.1,1-0.2,1.5-0.2c0.2,0,0.3,0,0.5,0
		c0.2,0,0.4,0,0.6,0.1c0.2,0,0.4,0,0.6,0.1c0.2,0,0.3,0.1,0.5,0.1l-0.3,1.4c-0.1,0-0.2-0.1-0.4-0.1c-0.1,0-0.3,0-0.5-0.1
		c-0.2,0-0.3,0-0.5,0c-0.2,0-0.3,0-0.4,0c-0.4,0-0.7,0-0.9,0.1c-0.3,0-0.5,0.1-0.6,0.3c-0.2,0.1-0.3,0.4-0.3,0.6
		c-0.1,0.3-0.1,0.7-0.1,1.1c0,0.5,0,0.9,0.1,1.1c0.1,0.3,0.2,0.5,0.3,0.7c0.1,0.2,0.3,0.3,0.6,0.3c0.2,0,0.5,0.1,0.9,0.1
		c0.1,0,0.2,0,0.3,0c0.1,0,0.2,0,0.3,0V26z"/>
	<path id="XMLID_81_" class="st0" d="M69.2,25.9c0.1,0,0.2,0.1,0.4,0.2c0.1,0.1,0.3,0.3,0.5,0.5c0.2,0.2,0.4,0.5,0.6,0.9
		c0.2,0.4,0.5,0.8,0.8,1.4h-2c-0.3-0.5-0.5-0.9-0.7-1.2c-0.2-0.3-0.4-0.6-0.5-0.8c-0.2-0.2-0.3-0.3-0.4-0.4
		c-0.1-0.1-0.2-0.1-0.3-0.1h-0.7v2.5h-1.6v-7h3.9c0.4,0,0.7,0.1,0.9,0.2c0.2,0.1,0.4,0.2,0.6,0.4c0.1,0.2,0.3,0.4,0.3,0.6
		c0.1,0.2,0.1,0.5,0.1,0.8c0,0.3,0,0.5-0.1,0.7c-0.1,0.2-0.2,0.4-0.3,0.6c-0.1,0.2-0.3,0.3-0.5,0.4C69.8,25.8,69.6,25.9,69.2,25.9
		 M66.8,25.1h1.8c0.2,0,0.3-0.1,0.4-0.2c0.1-0.1,0.2-0.4,0.2-0.7c0-0.3-0.1-0.6-0.2-0.7c-0.1-0.1-0.2-0.2-0.4-0.2h-1.8V25.1z"/>
	<polygon id="XMLID_33_" class="st0" points="78.6,21.9 78.6,23.3 75,23.3 75,24.6 77.6,24.6 77.6,25.9 75,25.9 75,27.5 78.6,27.5 
		78.6,28.9 73.4,28.9 73.4,21.9 	"/>
	<polygon id="XMLID_32_" class="st0" points="85.8,21.9 85.8,23.3 82.2,23.3 82.2,24.6 84.8,24.6 84.8,25.9 82.2,25.9 82.2,27.5 
		85.8,27.5 85.8,28.9 80.6,28.9 80.6,21.9 	"/>
	<path id="XMLID_31_" class="st0" d="M94.2,28.9h-2c-0.4-0.8-0.9-1.6-1.3-2.4c-0.5-0.8-0.9-1.6-1.4-2.4v4.8h-1.6v-7H90
		c0.5,0.7,0.9,1.5,1.3,2.3c0.4,0.8,0.9,1.5,1.3,2.3v-4.6h1.6V28.9z"/>
	<polygon id="XMLID_30_" class="st0" points="105.6,21.9 105.6,23.3 102,23.3 102,24.6 104.6,24.6 104.6,25.9 102,25.9 102,27.5 
		105.6,27.5 105.6,28.9 100.4,28.9 100.4,21.9 	"/>
	<path id="XMLID_29_" class="st0" d="M113.5,21.9v5c0,0.4-0.1,0.8-0.2,1c-0.1,0.3-0.3,0.5-0.6,0.6c-0.3,0.2-0.6,0.3-0.9,0.3
		c-0.4,0.1-0.8,0.1-1.2,0.1c-0.5,0-0.9,0-1.2-0.1c-0.4-0.1-0.7-0.2-0.9-0.3c-0.3-0.2-0.5-0.4-0.6-0.6c-0.1-0.3-0.2-0.6-0.2-1v-5h1.6
		v4.2c0,0.2,0,0.4,0,0.6c0,0.2,0.1,0.3,0.2,0.4c0.1,0.1,0.2,0.2,0.4,0.3c0.2,0.1,0.4,0.1,0.8,0.1c0.3,0,0.6,0,0.8-0.1
		c0.2-0.1,0.3-0.1,0.4-0.3c0.1-0.1,0.1-0.3,0.2-0.4c0-0.2,0-0.4,0-0.6v-4.2H113.5z"/>
	<path id="XMLID_73_" class="st0" d="M120,25.9c0.1,0,0.2,0.1,0.4,0.2c0.1,0.1,0.3,0.3,0.5,0.5c0.2,0.2,0.4,0.5,0.6,0.9
		c0.2,0.4,0.5,0.8,0.8,1.4h-2c-0.3-0.5-0.5-0.9-0.7-1.2c-0.2-0.3-0.4-0.6-0.5-0.8c-0.2-0.2-0.3-0.3-0.4-0.4
		c-0.1-0.1-0.2-0.1-0.3-0.1h-0.7v2.5h-1.6v-7h3.9c0.4,0,0.7,0.1,0.9,0.2c0.2,0.1,0.4,0.2,0.6,0.4c0.1,0.2,0.3,0.4,0.3,0.6
		c0.1,0.2,0.1,0.5,0.1,0.8c0,0.3,0,0.5-0.1,0.7c-0.1,0.2-0.2,0.4-0.3,0.6c-0.1,0.2-0.3,0.3-0.5,0.4C120.6,25.8,120.3,25.9,120,25.9
		 M117.5,25.1h1.8c0.2,0,0.3-0.1,0.4-0.2c0.1-0.1,0.2-0.4,0.2-0.7c0-0.3-0.1-0.6-0.2-0.7c-0.1-0.1-0.2-0.2-0.4-0.2h-1.8V25.1z"/>
	<path id="XMLID_70_" class="st0" d="M126.8,21.7c0.6,0,1,0.1,1.5,0.2c0.4,0.1,0.8,0.3,1.1,0.6c0.3,0.3,0.5,0.6,0.6,1.1
		c0.1,0.5,0.2,1,0.2,1.8c0,0.7-0.1,1.3-0.2,1.8c-0.1,0.5-0.4,0.9-0.6,1.1c-0.3,0.3-0.6,0.5-1.1,0.6c-0.4,0.1-0.9,0.2-1.5,0.2
		c-0.6,0-1.1-0.1-1.5-0.2c-0.4-0.1-0.8-0.3-1.1-0.6c-0.3-0.3-0.5-0.7-0.6-1.1c-0.1-0.5-0.2-1.1-0.2-1.8c0-0.7,0.1-1.3,0.2-1.8
		c0.1-0.5,0.4-0.8,0.6-1.1c0.3-0.3,0.6-0.5,1.1-0.6C125.7,21.8,126.2,21.7,126.8,21.7 M126.8,27.5c0.4,0,0.6,0,0.9-0.1
		c0.2-0.1,0.4-0.2,0.5-0.3c0.1-0.2,0.2-0.4,0.2-0.7c0-0.3,0.1-0.7,0.1-1.2c0-0.5,0-0.8-0.1-1.1c0-0.3-0.1-0.5-0.2-0.6
		c-0.1-0.1-0.3-0.2-0.5-0.3c-0.2,0-0.5-0.1-0.9-0.1c-0.4,0-0.6,0-0.9,0.1c-0.2,0-0.4,0.1-0.5,0.3c-0.1,0.1-0.2,0.4-0.2,0.6
		c0,0.3-0.1,0.7-0.1,1.1c0,0.5,0,0.9,0.1,1.2c0,0.3,0.1,0.5,0.2,0.7c0.1,0.2,0.3,0.3,0.5,0.3C126.1,27.5,126.4,27.5,126.8,27.5"/>
	<path id="XMLID_67_" class="st0" d="M132.3,28.9v-7h3.9c0.4,0,0.7,0.1,0.9,0.2c0.2,0.1,0.4,0.3,0.6,0.5c0.2,0.2,0.3,0.5,0.3,0.8
		c0.1,0.3,0.1,0.6,0.1,1c0,0.3,0,0.6-0.1,0.9c-0.1,0.3-0.2,0.5-0.3,0.7c-0.2,0.2-0.4,0.4-0.6,0.5c-0.2,0.1-0.5,0.2-0.8,0.2h-2.3v2.2
		H132.3z M135.6,25.4c0.2,0,0.4-0.1,0.5-0.2c0.1-0.2,0.2-0.4,0.2-0.8c0-0.4-0.1-0.7-0.2-0.8c-0.1-0.2-0.3-0.3-0.5-0.3h-1.7v2.1
		H135.6z"/>
	<polygon id="XMLID_22_" class="st0" points="144.9,21.9 144.9,23.3 141.3,23.3 141.3,24.6 143.9,24.6 143.9,25.9 141.3,25.9 
		141.3,27.5 144.9,27.5 144.9,28.9 139.7,28.9 139.7,21.9 	"/>
	<path id="XMLID_63_" class="st0" d="M151.6,28.9c-0.1-0.2-0.2-0.4-0.3-0.7c-0.1-0.3-0.2-0.5-0.3-0.8h-2.9c-0.1,0.3-0.2,0.6-0.2,0.8
		c-0.1,0.3-0.1,0.5-0.2,0.7h-1.7c0.1-0.5,0.3-1,0.5-1.6c0.2-0.6,0.4-1.2,0.6-1.8c0.2-0.6,0.4-1.2,0.7-1.8c0.2-0.6,0.4-1.2,0.6-1.6
		h2.5c0.2,0.5,0.4,1.1,0.6,1.8c0.2,0.6,0.4,1.2,0.6,1.9c0.2,0.6,0.4,1.2,0.7,1.8c0.2,0.6,0.4,1.1,0.6,1.5H151.6z M149.4,23.3
		c-0.1,0.4-0.3,0.8-0.4,1.2c-0.2,0.5-0.3,0.9-0.5,1.4h2c-0.2-0.5-0.3-0.9-0.5-1.4c-0.1-0.5-0.3-0.9-0.4-1.2H149.4z"/>
	<path id="XMLID_19_" class="st0" d="M160.9,28.9h-2c-0.4-0.8-0.9-1.6-1.3-2.4c-0.5-0.8-0.9-1.6-1.4-2.4v4.8h-1.6v-7h2.1
		c0.5,0.7,0.9,1.5,1.3,2.3c0.4,0.8,0.9,1.5,1.3,2.3v-4.6h1.6V28.9z"/>
	<polygon id="XMLID_18_" class="st0" points="172.2,21.9 172.2,23.3 168.8,23.3 168.8,24.9 171.3,24.9 171.3,26.3 168.8,26.3 
		168.8,28.9 167.2,28.9 167.2,21.9 	"/>
	<path id="XMLID_58_" class="st0" d="M176.9,21.7c0.6,0,1,0.1,1.5,0.2c0.4,0.1,0.8,0.3,1.1,0.6c0.3,0.3,0.5,0.6,0.6,1.1
		c0.1,0.5,0.2,1,0.2,1.8c0,0.7-0.1,1.3-0.2,1.8c-0.1,0.5-0.4,0.9-0.6,1.1c-0.3,0.3-0.6,0.5-1.1,0.6c-0.4,0.1-0.9,0.2-1.5,0.2
		c-0.6,0-1.1-0.1-1.5-0.2c-0.4-0.1-0.8-0.3-1.1-0.6c-0.3-0.3-0.5-0.7-0.6-1.1c-0.1-0.5-0.2-1.1-0.2-1.8c0-0.7,0.1-1.3,0.2-1.8
		c0.1-0.5,0.4-0.8,0.6-1.1c0.3-0.3,0.6-0.5,1.1-0.6C175.9,21.8,176.3,21.7,176.9,21.7 M176.9,27.5c0.4,0,0.6,0,0.9-0.1
		c0.2-0.1,0.4-0.2,0.5-0.3c0.1-0.2,0.2-0.4,0.2-0.7c0-0.3,0.1-0.7,0.1-1.2c0-0.5,0-0.8-0.1-1.1c0-0.3-0.1-0.5-0.2-0.6
		c-0.1-0.1-0.3-0.2-0.5-0.3c-0.2,0-0.5-0.1-0.9-0.1c-0.4,0-0.6,0-0.9,0.1c-0.2,0-0.4,0.1-0.5,0.3c-0.1,0.1-0.2,0.4-0.2,0.6
		c0,0.3-0.1,0.7-0.1,1.1c0,0.5,0,0.9,0.1,1.2c0,0.3,0.1,0.5,0.2,0.7c0.1,0.2,0.3,0.3,0.5,0.3C176.3,27.5,176.6,27.5,176.9,27.5"/>
	<path id="XMLID_15_" class="st0" d="M188.3,21.9v5c0,0.4-0.1,0.8-0.2,1c-0.1,0.3-0.3,0.5-0.6,0.6c-0.3,0.2-0.6,0.3-0.9,0.3
		c-0.4,0.1-0.8,0.1-1.2,0.1c-0.5,0-0.9,0-1.2-0.1c-0.4-0.1-0.7-0.2-0.9-0.3c-0.3-0.2-0.5-0.4-0.6-0.6c-0.1-0.3-0.2-0.6-0.2-1v-5h1.6
		v4.2c0,0.2,0,0.4,0,0.6c0,0.2,0.1,0.3,0.2,0.4c0.1,0.1,0.2,0.2,0.4,0.3c0.2,0.1,0.4,0.1,0.8,0.1c0.3,0,0.6,0,0.8-0.1
		c0.2-0.1,0.3-0.1,0.4-0.3c0.1-0.1,0.1-0.3,0.2-0.4c0-0.2,0-0.4,0-0.6v-4.2H188.3z"/>
	<path id="XMLID_14_" class="st0" d="M196.9,28.9h-2c-0.4-0.8-0.9-1.6-1.3-2.4c-0.5-0.8-0.9-1.6-1.4-2.4v4.8h-1.6v-7h2.1
		c0.5,0.7,0.9,1.5,1.3,2.3c0.4,0.8,0.9,1.5,1.3,2.3v-4.6h1.6V28.9z"/>
	<path id="XMLID_53_" class="st0" d="M202.3,21.9c0.6,0,1,0.1,1.5,0.2c0.4,0.1,0.8,0.3,1,0.6c0.3,0.3,0.5,0.6,0.6,1.1
		c0.1,0.4,0.2,1,0.2,1.7c0,0.7-0.1,1.2-0.2,1.7c-0.1,0.5-0.3,0.8-0.6,1.1c-0.3,0.3-0.6,0.5-1,0.6c-0.4,0.1-0.9,0.2-1.5,0.2h-2.9v-7
		H202.3z M203.9,25.4c0-0.5,0-0.8-0.1-1.1c-0.1-0.3-0.1-0.5-0.3-0.6c-0.1-0.1-0.3-0.2-0.5-0.3c-0.2,0-0.5-0.1-0.9-0.1H201v4.1h1.1
		c0.4,0,0.6,0,0.9-0.1c0.2,0,0.4-0.1,0.5-0.3c0.1-0.2,0.2-0.4,0.3-0.6C203.9,26.2,203.9,25.8,203.9,25.4"/>
	<path id="XMLID_50_" class="st0" d="M212.1,28.9c-0.1-0.2-0.2-0.4-0.3-0.7c-0.1-0.3-0.2-0.5-0.3-0.8h-2.9c-0.1,0.3-0.2,0.6-0.2,0.8
		c-0.1,0.3-0.1,0.5-0.2,0.7h-1.7c0.1-0.5,0.3-1,0.5-1.6c0.2-0.6,0.4-1.2,0.6-1.8c0.2-0.6,0.4-1.2,0.7-1.8c0.2-0.6,0.4-1.2,0.6-1.6
		h2.5c0.2,0.5,0.4,1.1,0.6,1.8c0.2,0.6,0.4,1.2,0.6,1.9c0.2,0.6,0.4,1.2,0.7,1.8c0.2,0.6,0.4,1.1,0.6,1.5H212.1z M210,23.3
		c-0.1,0.4-0.3,0.8-0.4,1.2c-0.2,0.5-0.3,0.9-0.5,1.4h2c-0.2-0.5-0.3-0.9-0.5-1.4c-0.1-0.5-0.3-0.9-0.4-1.2H210z"/>
	<polygon id="XMLID_9_" class="st0" points="216.2,28.9 216.2,23.3 213.9,23.3 213.9,21.9 220.1,21.9 220.1,23.3 217.8,23.3 
		217.8,28.9 	"/>
	<rect id="XMLID_8_" x="221.8" y="21.9" class="st0" width="1.6" height="7"/>
	<path id="XMLID_45_" class="st0" d="M228.9,21.7c0.6,0,1,0.1,1.5,0.2c0.4,0.1,0.8,0.3,1.1,0.6c0.3,0.3,0.5,0.6,0.6,1.1
		c0.1,0.5,0.2,1,0.2,1.8c0,0.7-0.1,1.3-0.2,1.8c-0.1,0.5-0.4,0.9-0.6,1.1c-0.3,0.3-0.6,0.5-1.1,0.6c-0.4,0.1-0.9,0.2-1.5,0.2
		c-0.6,0-1.1-0.1-1.5-0.2c-0.4-0.1-0.8-0.3-1.1-0.6c-0.3-0.3-0.5-0.7-0.6-1.1c-0.1-0.5-0.2-1.1-0.2-1.8c0-0.7,0.1-1.3,0.2-1.8
		c0.1-0.5,0.4-0.8,0.6-1.1c0.3-0.3,0.6-0.5,1.1-0.6C227.8,21.8,228.3,21.7,228.9,21.7 M228.9,27.5c0.4,0,0.6,0,0.9-0.1
		c0.2-0.1,0.4-0.2,0.5-0.3c0.1-0.2,0.2-0.4,0.2-0.7c0-0.3,0.1-0.7,0.1-1.2c0-0.5,0-0.8-0.1-1.1c0-0.3-0.1-0.5-0.2-0.6
		c-0.1-0.1-0.3-0.2-0.5-0.3c-0.2,0-0.5-0.1-0.9-0.1c-0.4,0-0.6,0-0.9,0.1c-0.2,0-0.4,0.1-0.5,0.3c-0.1,0.1-0.2,0.4-0.2,0.6
		c0,0.3-0.1,0.7-0.1,1.1c0,0.5,0,0.9,0.1,1.2c0,0.3,0.1,0.5,0.2,0.7c0.1,0.2,0.3,0.3,0.5,0.3C228.2,27.5,228.5,27.5,228.9,27.5"/>
	<path id="XMLID_5_" class="st0" d="M240.5,28.9h-2c-0.4-0.8-0.9-1.6-1.3-2.4c-0.5-0.8-0.9-1.6-1.4-2.4v4.8h-1.6v-7h2.1
		c0.5,0.7,0.9,1.5,1.3,2.3c0.4,0.8,0.9,1.5,1.3,2.3v-4.6h1.6V28.9z"/>
	<path id="XMLID_4_" class="st1" d="M11,34.3c-3.6,0-6-2.8-6-5.9v-5.8c0-3.1,2.4-5.9,6-5.9c3.6,0,5,2.5,5.3,3.2
		c0.1,0.3,0.2,0.8-0.2,1.1l-0.9,0.6c-0.4,0.3-0.8,0.3-1.1-0.2c-0.3-0.5-1.1-2.1-3.1-2.1c-2,0-3.2,1.7-3.2,3.3v5.8
		c0,1.6,1.2,3.3,3.2,3.3c2,0,3.2-1.7,3.2-3.3v-0.9c0-0.5-0.3-0.8-0.8-0.8h-1.6c-0.5,0-0.8-0.3-0.8-0.8v-0.8c0-0.5,0.3-0.8,0.8-0.8
		h4.4c0.5,0,0.8,0.3,0.8,0.8v3.3C17,31.5,14.6,34.3,11,34.3"/>
	<path id="XMLID_3_" class="st1" d="M26.3,34.3c-3.6,0-6-2.8-6-5.9v-5.8c0-3.1,2.4-5.9,6-5.9c3.6,0,5,2.5,5.3,3.2
		c0.1,0.3,0.2,0.8-0.2,1.1l-0.9,0.6c-0.4,0.3-0.8,0.3-1.1-0.2c-0.3-0.5-1.1-2.1-3.1-2.1s-3.2,1.7-3.2,3.3v0.9c0,0.5,0.3,0.8,0.8,0.8
		h3.7c0.5,0,0.8,0.3,0.8,0.8v0.8c0,0.5-0.3,0.8-0.8,0.8h-3.7c-0.5,0-0.8,0.3-0.8,0.8v0.9c0,1.6,1.2,3.3,3.2,3.3s2.7-1.5,3.1-2
		c0.3-0.5,0.7-0.5,1.1-0.3l0.8,0.6c0.5,0.3,0.5,0.7,0.3,1.1C31.3,31.8,29.9,34.3,26.3,34.3"/>
	<path id="XMLID_2_" class="st1" d="M45.6,20.2c-0.3,0.4-0.8,0.5-1.1,0.3c-0.9-0.6-2.3-1.2-3.8-1.2c-2,0-3.2,1.7-3.2,3.3v0.9
		c0,0.5,0.3,0.8,0.8,0.8h5.3c0.5,0,0.8,0.3,0.8,0.8v0.8c0,0.5-0.3,0.8-0.8,0.8h-5.3c-0.5,0-0.8,0.3-0.8,0.8v5.6
		c0,0.5-0.3,0.8-0.8,0.8h-1.2c-0.5,0-0.8-0.3-0.8-0.8V22.6c0-3.1,2.4-5.9,6-5.9c2.2,0,4.2,1,5.1,1.6c0.4,0.3,0.5,0.7,0.3,1.1
		L45.6,20.2z"/>
</g>
</svg>
